mux.vcd
$date
	Wed Oct 27 01:51:05 2021
$end
$version
	Icarus Verilog
$end
$timescale
	1ps
$end
$scope module test $end
$var wire 1 ! t $end
$var wire 1 " r $end
$var wire 1 # n $end
$var wire 1 $ m $end
$var wire 1 % k $end
$var reg 1 & a $end
$var reg 1 ' b $end
$var reg 1 ( c $end
$var reg 1 ) d $end
$var reg 1 * e $end
$var reg 1 + f $end
$var reg 1 , g $end
$var reg 1 - h $end
$var reg 1 . i $end
$var reg 1 / in1 $end
$var reg 1 0 in10 $end
$var reg 1 1 in11 $end
$var reg 1 2 in12 $end
$var reg 1 3 in13 $end
$var reg 1 4 in14 $end
$var reg 1 5 in15 $end
$var reg 1 6 in16 $end
$var reg 1 7 in2 $end
$var reg 1 8 in3 $end
$var reg 1 9 in4 $end
$var reg 1 : in5 $end
$var reg 1 ; in6 $end
$var reg 1 < in7 $end
$var reg 1 = in8 $end
$var reg 1 > in9 $end
$scope module uut $end
$var wire 1 & a $end
$var wire 1 ' b $end
$var wire 1 ( c $end
$var wire 1 ) d $end
$var wire 1 * e $end
$var wire 1 + f $end
$var wire 1 , g $end
$var wire 1 - h $end
$var wire 1 . i $end
$var wire 1 / in1 $end
$var wire 1 0 in10 $end
$var wire 1 1 in11 $end
$var wire 1 2 in12 $end
$var wire 1 3 in13 $end
$var wire 1 4 in14 $end
$var wire 1 5 in15 $end
$var wire 1 6 in16 $end
$var wire 1 7 in2 $end
$var wire 1 8 in3 $end
$var wire 1 9 in4 $end
$var wire 1 : in5 $end
$var wire 1 ; in6 $end
$var wire 1 < in7 $end
$var wire 1 = in8 $end
$var wire 1 > in9 $end
$var wire 1 ? j $end
$var wire 1 % k $end
$var wire 1 @ k1 $end
$var wire 1 A k2 $end
$var wire 1 B k3 $end
$var wire 1 C l $end
$var wire 1 $ m $end
$var wire 1 D m1 $end
$var wire 1 E m2 $end
$var wire 1 F m3 $end
$var wire 1 # n $end
$var wire 1 G n1 $end
$var wire 1 H n2 $end
$var wire 1 I n3 $end
$var wire 1 J o $end
$var wire 1 K p $end
$var wire 1 L q $end
$var wire 1 " r $end
$var wire 1 M r1 $end
$var wire 1 N r2 $end
$var wire 1 O r3 $end
$var wire 1 P s $end
$var wire 1 ! t $end
$upscope $end
$upscope $end
$enddefinitions $end
#0
$dumpvars
0P
0O
0N
0M
0L
1K
0J
0I
0H
0G
0F
0E
0D
1C
1B
1A
1@
1?
0>
0=
0<
0;
0:
19
18
17
06
05
04
03
02
01
00
1/
0.
0-
0,
0+
0*
0)
0(
0'
0&
1%
0$
0#
0"
0!
$end
#5
0?
1&
#10
1L
0P
1!
1I
1O
1H
1N
1G
1M
1#
1"
1?
1J
0&
1'
#15
1P
0L
0I
0H
0G
0#
0?
1&
#20
0!
0P
0O
0N
0M
0"
1?
0J
0&
0'
1(
#25
0?
1&
#30
1L
0P
1!
1I
1O
1H
1N
1G
1M
1#
1"
1?
1J
0&
1'
#35
1P
0L
0I
0H
0G
0#
0?
1&
#40
0!
0P
0O
0N
0M
0"
1?
0J
0&
0'
0(
1)
#45
0?
1&
#50
1L
0P
1!
1I
1O
1H
1N
1G
1M
1#
1"
1?
1J
0&
1'
#55
1P
0L
0I
0H
0G
0#
0?
1&
#60
0!
0P
0O
0N
0B
0M
0A
0"
0@
1?
0J
0%
0&
0'
1(
#65
0?
1&
#70
1P
1L
1!
1I
1H
1G
1#
1?
1J
0&
1'
#75
0!
0P
0L
0I
0H
0G
0#
0?
1&
#80
1B
1A
1@
1?
0J
1%
0C
0&
0'
0(
0)
1*
#85
0?
1&
#90
1L
0P
1!
1I
1O
1H
1N
1G
1M
1#
1"
1?
1J
0&
1'
#95
1P
0L
0I
0H
0G
0#
0?
1&
#100
0!
0P
0O
0N
0M
0"
1?
0J
0&
0'
1(
#105
0?
1&
#110
1L
0P
1!
1I
1O
1H
1N
1G
1M
1#
1"
1?
1J
0&
1'
#115
1P
0L
0I
0H
0G
0#
0?
1&
#120
0!
0P
0O
0N
0M
0"
1?
0J
0&
0'
0(
1)
#125
0?
1&
#130
1L
0P
1!
1I
1O
1H
1N
1G
1M
1#
1"
1?
1J
0&
1'
#135
1P
0L
0I
0H
0G
0#
0?
1&
#140
0!
0P
0O
0N
0B
0M
0A
0"
0@
1?
0J
0%
0&
0'
1(
#145
0?
1&
#150
1P
1L
1!
1I
1H
1G
1#
1?
1J
0&
1'
#155
0!
0P
0L
0I
0H
0G
0#
0?
1&
#160
1B
1A
1@
1?
0J
1%
0&
0'
0(
0)
0*
1+
#165
0?
1&
#170
1L
0P
1!
1I
1O
1H
1N
1G
1M
1#
1"
1?
1J
0&
1'
#175
1P
0L
0I
0H
0G
0#
0?
1&
#180
0!
0P
0O
0N
0M
0"
1?
0J
0&
0'
1(
#185
0?
1&
#190
1L
0P
1!
1I
1O
1H
1N
1G
1M
1#
1"
1?
1J
0&
1'
#195
1P
0L
0I
0H
0G
0#
0?
1&
#200
0!
0P
0O
0N
0M
0"
1?
0J
0&
0'
0(
1)
#205
0?
1&
#210
1L
0P
1!
1I
1O
1H
1N
1G
1M
1#
1"
1?
1J
0&
1'
#215
1P
0L
0I
0H
0G
0#
0?
1&
#220
0!
0P
0O
0N
0B
0M
0A
0"
0@
1?
0J
0%
0&
0'
1(
#225
0?
1&
#230
1P
1L
1!
1I
1H
1G
1#
1?
1J
0&
1'
#235
0!
0P
0L
0I
0H
0G
0#
0?
1&
#240
1B
1A
1@
1?
0J
1%
1C
0&
0'
0(
0)
1*
#245
0?
1&
#250
1L
0P
1!
1I
1O
1H
1N
1G
1M
1#
1"
1?
1J
0&
1'
#255
1P
0L
0I
0H
0G
0#
0?
1&
#260
0!
0P
0O
0N
0M
0"
1?
0J
0&
0'
1(
#265
0?
1&
#270
1L
0P
1!
1I
1O
1H
1N
1G
1M
1#
1"
1?
1J
0&
1'
#275
1P
0L
0I
0H
0G
0#
0?
1&
#280
0!
0P
0O
0N
0M
0"
1?
0J
0&
0'
0(
1)
#285
0?
1&
#290
1L
0P
1!
1I
1O
1H
1N
1G
1M
1#
1"
1?
1J
0&
1'
#295
1P
0L
0I
0H
0G
0#
0?
1&
#300
0!
0P
0O
0N
0B
0M
0A
0"
0@
1?
0J
0%
0&
0'
1(
#305
0?
1&
#310
1P
1L
1!
1I
1H
1G
1#
1?
1J
0&
1'
#315
0!
0P
0L
0I
0H
0G
0#
0?
1&
#320
0K
1B
1F
1A
1E
1@
1D
1?
1J
1%
1$
0&
0'
0(
0)
0*
0+
1,
#325
0?
1&
#330
1!
1I
1H
1G
1#
1?
0&
1'
#335
0!
0I
0H
0G
0#
0?
1&
#340
1?
0&
0'
1(
#345
0?
1&
#350
1!
1I
1H
1G
1#
1?
0&
1'
#355
0!
0I
0H
0G
0#
0?
1&
#360
1?
0&
0'
0(
1)
#365
0?
1&
#370
1!
1I
1H
1G
1#
1?
0&
1'
#375
0!
0I
0H
0G
0#
0?
1&
#380
0B
0A
0@
1?
0%
0&
0'
1(
#385
0?
1&
#390
1!
1I
1H
1G
1#
1?
0&
1'
#395
0!
0I
0H
0G
0#
0?
1&
#400
1P
1!
1O
1N
1M
1"
1B
1A
1@
1K
1?
1%
0C
0&
0'
0(
0)
1*
#405
0?
1&
#410
0P
1L
1I
1H
1G
1#
1?
0&
1'
#415
1P
0L
0I
0H
0G
0#
0?
1&
#420
1?
0&
0'
1(
#425
0?
1&
#430
0P
1L
1I
1H
1G
1#
1?
0&
1'
#435
1P
0L
0I
0H
0G
0#
0?
1&
#440
1?
0&
0'
0(
1)
#445
0?
1&
#450
0P
1L
1I
1H
1G
1#
1?
0&
1'
#455
1P
0L
0I
0H
0G
0#
0?
1&
#460
0!
0P
0O
0N
0M
0"
0B
0A
0@
1?
0%
0&
0'
1(
#465
0?
1&
#470
1P
1L
1!
1I
1H
1G
1#
1?
0&
1'
#475
0!
0P
0L
0I
0H
0G
0#
0?
1&
#480
1P
1!
1O
1N
1M
1"
1B
1A
1@
1?
1%
0&
0'
0(
0)
0*
1+
#485
0?
1&
#490
0P
1L
1I
1H
1G
1#
1?
0&
1'
#495
1P
0L
0I
0H
0G
0#
0?
1&
#500
1?
0&
0'
1(
#505
0?
1&
#510
0P
1L
1I
1H
1G
1#
1?
0&
1'
#515
1P
0L
0I
0H
0G
0#
0?
1&
#520
1?
0&
0'
0(
1)
#525
0?
1&
#530
0P
1L
1I
1H
1G
1#
1?
0&
1'
#535
1P
0L
0I
0H
0G
0#
0?
1&
#540
0!
0P
0O
0N
0M
0"
0B
0A
0@
1?
0%
0&
0'
1(
#545
0?
1&
#550
1P
1L
1!
1I
1H
1G
1#
1?
0&
1'
#555
0!
0P
0L
0I
0H
0G
0#
0?
1&
#560
1B
1A
1@
0K
1?
1%
1C
0&
0'
0(
0)
1*
#565
0?
1&
#570
1!
1I
1H
1G
1#
1?
0&
1'
#575
0!
0I
0H
0G
0#
0?
1&
#580
1?
0&
0'
1(
#585
0?
1&
#590
1!
1I
1H
1G
1#
1?
0&
1'
#595
0!
0I
0H
0G
0#
0?
1&
#600
1?
0&
0'
0(
1)
#605
0?
1&
#610
1!
1I
1H
1G
1#
1?
0&
1'
#615
0!
0I
0H
0G
0#
0?
1&
#620
0B
0A
0@
1?
0%
0&
0'
1(
#625
0?
1&
#630
1!
1I
1H
1G
1#
1?
0&
1'
#635
0!
0I
0H
0G
0#
0?
1&
#640
1B
1A
1@
1?
1%
0&
0'
0(
0)
0*
0+
0,
1-
#645
0?
1&
#650
1!
1I
1H
1G
1#
1?
0&
1'
#655
0!
0I
0H
0G
0#
0?
1&
#660
1?
0&
0'
1(
#665
0?
1&
#670
1!
1I
1H
1G
1#
1?
0&
1'
#675
0!
0I
0H
0G
0#
0?
1&
#680
1?
0&
0'
0(
1)
#685
0?
1&
#690
1!
1I
1H
1G
1#
1?
0&
1'
#695
0!
0I
0H
0G
0#
0?
1&
#700
0B
0A
0@
1?
0%
0&
0'
1(
#705
0?
1&
#710
1!
1I
1H
1G
1#
1?
0&
1'
#715
0!
0I
0H
0G
0#
0?
1&
#720
1P
1!
1O
1N
1M
1"
1B
1A
1@
1K
1?
1%
0C
0&
0'
0(
0)
1*
#725
0?
1&
#730
0P
1L
1I
1H
1G
1#
1?
0&
1'
#735
1P
0L
0I
0H
0G
0#
0?
1&
#740
1?
0&
0'
1(
#745
0?
1&
#750
0P
1L
1I
1H
1G
1#
1?
0&
1'
#755
1P
0L
0I
0H
0G
0#
0?
1&
#760
1?
0&
0'
0(
1)
#765
0?
1&
#770
0P
1L
1I
1H
1G
1#
1?
0&
1'
#775
1P
0L
0I
0H
0G
0#
0?
1&
#780
0!
0P
0O
0N
0M
0"
0B
0A
0@
1?
0%
0&
0'
1(
#785
0?
1&
#790
1P
1L
1!
1I
1H
1G
1#
1?
0&
1'
#795
0!
0P
0L
0I
0H
0G
0#
0?
1&
#800
1P
1!
1O
1N
1M
1"
1B
1A
1@
1?
1%
0&
0'
0(
0)
0*
1+
#805
0?
1&
#810
0P
1L
1I
1H
1G
1#
1?
0&
1'
#815
1P
0L
0I
0H
0G
0#
0?
1&
#820
1?
0&
0'
1(
#825
0?
1&
#830
0P
1L
1I
1H
1G
1#
1?
0&
1'
#835
1P
0L
0I
0H
0G
0#
0?
1&
#840
1?
0&
0'
0(
1)
#845
0?
1&
#850
0P
1L
1I
1H
1G
1#
1?
0&
1'
#855
1P
0L
0I
0H
0G
0#
0?
1&
#860
0!
0P
0O
0N
0M
0"
0B
0A
0@
1?
0%
0&
0'
1(
#865
0?
1&
#870
1P
1L
1!
1I
1H
1G
1#
1?
0&
1'
#875
0!
0P
0L
0I
0H
0G
0#
0?
1&
#880
1B
1A
1@
0K
1?
1%
1C
0&
0'
0(
0)
1*
#885
0?
1&
#890
1!
1I
1H
1G
1#
1?
0&
1'
#895
0!
0I
0H
0G
0#
0?
1&
#900
1?
0&
0'
1(
#905
0?
1&
#910
1!
1I
1H
1G
1#
1?
0&
1'
#915
0!
0I
0H
0G
0#
0?
1&
#920
1?
0&
0'
0(
1)
#925
0?
1&
#930
1!
1I
1H
1G
1#
1?
0&
1'
#935
0!
0I
0H
0G
0#
0?
1&
#940
0B
0A
0@
1?
0%
0&
0'
1(
#945
0?
1&
#950
1!
1I
1H
1G
1#
1?
0&
1'
#955
0!
0I
0H
0G
0#
0?
1&
#960
0J
1K
1B
0F
1A
0E
1@
0D
1?
1%
0$
0&
0'
0(
0)
0*
0+
1,
#965
0?
1&
#970
1L
0P
1!
1I
1O
1H
1N
1G
1M
1#
1"
1?
1J
0&
1'
#975
1P
0L
0I
0H
0G
0#
0?
1&
#980
0!
0P
0O
0N
0M
0"
1?
0J
0&
0'
1(
#985
0?
1&
#990
1L
0P
1!
1I
1O
1H
1N
1G
1M
1#
1"
1?
1J
0&
1'
#995
1P
0L
0I
0H
0G
0#
0?
1&
#1000
0!
0P
0O
0N
0M
0"
1?
0J
0&
0'
0(
1)
#1005
0?
1&
#1010
1L
0P
1!
1I
1O
1H
1N
1G
1M
1#
1"
1?
1J
0&
1'
#1015
1P
0L
0I
0H
0G
0#
0?
1&
#1020
0!
0P
0O
0N
0B
0M
0A
0"
0@
1?
0J
0%
0&
0'
1(
#1025
0?
1&
#1030
1P
1L
1!
1I
1H
1G
1#
1?
1J
0&
1'
#1035
0!
0P
0L
0I
0H
0G
0#
0?
1&
#1040
1B
1A
1@
1?
0J
1%
0C
0&
0'
0(
0)
1*
#1045
0?
1&
#1050
1L
0P
1!
1I
1O
1H
1N
1G
1M
1#
1"
1?
1J
0&
1'
#1055
1P
0L
0I
0H
0G
0#
0?
1&
#1060
0!
0P
0O
0N
0M
0"
1?
0J
0&
0'
1(
#1065
0?
1&
#1070
1L
0P
1!
1I
1O
1H
1N
1G
1M
1#
1"
1?
1J
0&
1'
#1075
1P
0L
0I
0H
0G
0#
0?
1&
#1080
0!
0P
0O
0N
0M
0"
1?
0J
0&
0'
0(
1)
#1085
0?
1&
#1090
1L
0P
1!
1I
1O
1H
1N
1G
1M
1#
1"
1?
1J
0&
1'
#1095
1P
0L
0I
0H
0G
0#
0?
1&
#1100
0!
0P
0O
0N
0B
0M
0A
0"
0@
1?
0J
0%
0&
0'
1(
#1105
0?
1&
#1110
1P
1L
1!
1I
1H
1G
1#
1?
1J
0&
1'
#1115
0!
0P
0L
0I
0H
0G
0#
0?
1&
#1120
1B
1A
1@
1?
0J
1%
0&
0'
0(
0)
0*
1+
#1125
0?
1&
#1130
1L
0P
1!
1I
1O
1H
1N
1G
1M
1#
1"
1?
1J
0&
1'
#1135
1P
0L
0I
0H
0G
0#
0?
1&
#1140
0!
0P
0O
0N
0M
0"
1?
0J
0&
0'
1(
#1145
0?
1&
#1150
1L
0P
1!
1I
1O
1H
1N
1G
1M
1#
1"
1?
1J
0&
1'
#1155
1P
0L
0I
0H
0G
0#
0?
1&
#1160
0!
0P
0O
0N
0M
0"
1?
0J
0&
0'
0(
1)
#1165
0?
1&
#1170
1L
0P
1!
1I
1O
1H
1N
1G
1M
1#
1"
1?
1J
0&
1'
#1175
1P
0L
0I
0H
0G
0#
0?
1&
#1180
0!
0P
0O
0N
0B
0M
0A
0"
0@
1?
0J
0%
0&
0'
1(
#1185
0?
1&
#1190
1P
1L
1!
1I
1H
1G
1#
1?
1J
0&
1'
#1195
0!
0P
0L
0I
0H
0G
0#
0?
1&
#1200
1B
1A
1@
1?
0J
1%
1C
0&
0'
0(
0)
1*
#1205
0?
1&
#1210
1L
0P
1!
1I
1O
1H
1N
1G
1M
1#
1"
1?
1J
0&
1'
#1215
1P
0L
0I
0H
0G
0#
0?
1&
#1220
0!
0P
0O
0N
0M
0"
1?
0J
0&
0'
1(
#1225
0?
1&
#1230
1L
0P
1!
1I
1O
1H
1N
1G
1M
1#
1"
1?
1J
0&
1'
#1235
1P
0L
0I
0H
0G
0#
0?
1&
#1240
0!
0P
0O
0N
0M
0"
1?
0J
0&
0'
0(
1)
#1245
0?
1&
#1250
1L
0P
1!
1I
1O
1H
1N
1G
1M
1#
1"
1?
1J
0&
1'
#1255
1P
0L
0I
0H
0G
0#
0?
1&
#1260
0!
0P
0O
0N
0B
0M
0A
0"
0@
1?
0J
0%
0&
0'
1(
#1265
0?
1&
#1270
1P
1L
1!
1I
1H
1G
1#
1?
1J
0&
1'
#1275
0!
0P
0L
0I
0H
0G
0#
0?
1&
#1280
0K
1B
1F
1A
1E
1@
1D
1?
1J
1%
1$
0&
0'
0(
0)
0*
0+
0,
0-
1.
#1285
0?
1&
#1290
1!
1I
1H
1G
1#
1?
0&
1'
#1295
0!
0I
0H
0G
0#
0?
1&
#1300
1?
0&
0'
1(
#1305
0?
1&
#1310
1!
1I
1H
1G
1#
1?
0&
1'
#1315
0!
0I
0H
0G
0#
0?
1&
#1320
1?
0&
0'
0(
1)
#1325
0?
1&
#1330
1!
1I
1H
1G
1#
1?
0&
1'
#1335
0!
0I
0H
0G
0#
0?
1&
#1340
0B
0A
0@
1?
0%
0&
0'
1(
#1345
0?
1&
#1350
1!
1I
1H
1G
1#
1?
0&
1'
#1355
0!
0I
0H
0G
0#
0?
1&
#1360
1P
1!
1O
1N
1M
1"
1B
1A
1@
1K
1?
1%
0C
0&
0'
0(
0)
1*
#1365
0?
1&
#1370
0P
1L
1I
1H
1G
1#
1?
0&
1'
#1375
1P
0L
0I
0H
0G
0#
0?
1&
#1380
1?
0&
0'
1(
#1385
0?
1&
#1390
0P
1L
1I
1H
1G
1#
1?
0&
1'
#1395
1P
0L
0I
0H
0G
0#
0?
1&
#1400
1?
0&
0'
0(
1)
#1405
0?
1&
#1410
0P
1L
1I
1H
1G
1#
1?
0&
1'
#1415
1P
0L
0I
0H
0G
0#
0?
1&
#1420
0!
0P
0O
0N
0M
0"
0B
0A
0@
1?
0%
0&
0'
1(
#1425
0?
1&
#1430
1P
1L
1!
1I
1H
1G
1#
1?
0&
1'
#1435
0!
0P
0L
0I
0H
0G
0#
0?
1&
#1440
1P
1!
1O
1N
1M
1"
1B
1A
1@
1?
1%
0&
0'
0(
0)
0*
1+
#1445
0?
1&
#1450
0P
1L
1I
1H
1G
1#
1?
0&
1'
#1455
1P
0L
0I
0H
0G
0#
0?
1&
#1460
1?
0&
0'
1(
#1465
0?
1&
#1470
0P
1L
1I
1H
1G
1#
1?
0&
1'
#1475
1P
0L
0I
0H
0G
0#
0?
1&
#1480
1?
0&
0'
0(
1)
#1485
0?
1&
#1490
0P
1L
1I
1H
1G
1#
1?
0&
1'
#1495
1P
0L
0I
0H
0G
0#
0?
1&
#1500
0!
0P
0O
0N
0M
0"
0B
0A
0@
1?
0%
0&
0'
1(
#1505
0?
1&
#1510
1P
1L
1!
1I
1H
1G
1#
1?
0&
1'
#1515
0!
0P
0L
0I
0H
0G
0#
0?
1&
#1520
1B
1A
1@
0K
1?
1%
1C
0&
0'
0(
0)
1*
#1525
0?
1&
#1530
1!
1I
1H
1G
1#
1?
0&
1'
#1535
0!
0I
0H
0G
0#
0?
1&
#1540
1?
0&
0'
1(
#1545
0?
1&
#1550
1!
1I
1H
1G
1#
1?
0&
1'
#1555
0!
0I
0H
0G
0#
0?
1&
#1560
1?
0&
0'
0(
1)
#1565
0?
1&
#1570
1!
1I
1H
1G
1#
1?
0&
1'
#1575
0!
0I
0H
0G
0#
0?
1&
#1580
0B
0A
0@
1?
0%
0&
0'
1(
#1585
0?
1&
#1590
1!
1I
1H
1G
1#
1?
0&
1'
#1595
0!
0I
0H
0G
0#
0?
1&
#1600
0J
1K
1B
0F
1A
0E
1@
0D
1?
1%
0$
0&
0'
0(
0)
0*
0+
1,
#1605
0?
1&
#1610
1L
0P
1!
1I
1O
1H
1N
1G
1M
1#
1"
1?
1J
0&
1'
#1615
1P
0L
0I
0H
0G
0#
0?
1&
#1620
0!
0P
0O
0N
0M
0"
1?
0J
0&
0'
1(
#1625
0?
1&
#1630
1L
0P
1!
1I
1O
1H
1N
1G
1M
1#
1"
1?
1J
0&
1'
#1635
1P
0L
0I
0H
0G
0#
0?
1&
#1640
0!
0P
0O
0N
0M
0"
1?
0J
0&
0'
0(
1)
#1645
0?
1&
#1650
1L
0P
1!
1I
1O
1H
1N
1G
1M
1#
1"
1?
1J
0&
1'
#1655
1P
0L
0I
0H
0G
0#
0?
1&
#1660
0!
0P
0O
0N
0B
0M
0A
0"
0@
1?
0J
0%
0&
0'
1(
#1665
0?
1&
#1670
1P
1L
1!
1I
1H
1G
1#
1?
1J
0&
1'
#1675
0!
0P
0L
0I
0H
0G
0#
0?
1&
#1680
1B
1A
1@
1?
0J
1%
0C
0&
0'
0(
0)
1*
#1685
0?
1&
#1690
1L
0P
1!
1I
1O
1H
1N
1G
1M
1#
1"
1?
1J
0&
1'
#1695
1P
0L
0I
0H
0G
0#
0?
1&
#1700
0!
0P
0O
0N
0M
0"
1?
0J
0&
0'
1(
#1705
0?
1&
#1710
1L
0P
1!
1I
1O
1H
1N
1G
1M
1#
1"
1?
1J
0&
1'
#1715
1P
0L
0I
0H
0G
0#
0?
1&
#1720
0!
0P
0O
0N
0M
0"
1?
0J
0&
0'
0(
1)
#1725
0?
1&
#1730
1L
0P
1!
1I
1O
1H
1N
1G
1M
1#
1"
1?
1J
0&
1'
#1735
1P
0L
0I
0H
0G
0#
0?
1&
#1740
0!
0P
0O
0N
0B
0M
0A
0"
0@
1?
0J
0%
0&
0'
1(
#1745
0?
1&
#1750
1P
1L
1!
1I
1H
1G
1#
1?
1J
0&
1'
#1755
0!
0P
0L
0I
0H
0G
0#
0?
1&
#1760
1B
1A
1@
1?
0J
1%
0&
0'
0(
0)
0*
1+
#1765
0?
1&
#1770
1L
0P
1!
1I
1O
1H
1N
1G
1M
1#
1"
1?
1J
0&
1'
#1775
1P
0L
0I
0H
0G
0#
0?
1&
#1780
0!
0P
0O
0N
0M
0"
1?
0J
0&
0'
1(
#1785
0?
1&
#1790
1L
0P
1!
1I
1O
1H
1N
1G
1M
1#
1"
1?
1J
0&
1'
#1795
1P
0L
0I
0H
0G
0#
0?
1&
#1800
0!
0P
0O
0N
0M
0"
1?
0J
0&
0'
0(
1)
#1805
0?
1&
#1810
1L
0P
1!
1I
1O
1H
1N
1G
1M
1#
1"
1?
1J
0&
1'
#1815
1P
0L
0I
0H
0G
0#
0?
1&
#1820
0!
0P
0O
0N
0B
0M
0A
0"
0@
1?
0J
0%
0&
0'
1(
#1825
0?
1&
#1830
1P
1L
1!
1I
1H
1G
1#
1?
1J
0&
1'
#1835
0!
0P
0L
0I
0H
0G
0#
0?
1&
#1840
1B
1A
1@
1?
0J
1%
1C
0&
0'
0(
0)
1*
#1845
0?
1&
#1850
1L
0P
1!
1I
1O
1H
1N
1G
1M
1#
1"
1?
1J
0&
1'
#1855
1P
0L
0I
0H
0G
0#
0?
1&
#1860
0!
0P
0O
0N
0M
0"
1?
0J
0&
0'
1(
#1865
0?
1&
#1870
1L
0P
1!
1I
1O
1H
1N
1G
1M
1#
1"
1?
1J
0&
1'
#1875
1P
0L
0I
0H
0G
0#
0?
1&
#1880
0!
0P
0O
0N
0M
0"
1?
0J
0&
0'
0(
1)
#1885
0?
1&
#1890
1L
0P
1!
1I
1O
1H
1N
1G
1M
1#
1"
1?
1J
0&
1'
#1895
1P
0L
0I
0H
0G
0#
0?
1&
#1900
0!
0P
0O
0N
0B
0M
0A
0"
0@
1?
0J
0%
0&
0'
1(
#1905
0?
1&
#1910
1P
1L
1!
1I
1H
1G
1#
1?
1J
0&
1'
#1915
0!
0P
0L
0I
0H
0G
0#
0?
1&
#1920
1B
1A
1@
1?
0J
1%
0&
0'
0(
0)
0*
0+
0,
1-
#1925
0?
1&
#1930
1L
0P
1!
1I
1O
1H
1N
1G
1M
1#
1"
1?
1J
0&
1'
#1935
1P
0L
0I
0H
0G
0#
0?
1&
#1940
0!
0P
0O
0N
0M
0"
1?
0J
0&
0'
1(
#1945
0?
1&
#1950
1L
0P
1!
1I
1O
1H
1N
1G
1M
1#
1"
1?
1J
0&
1'
#1955
1P
0L
0I
0H
0G
0#
0?
1&
#1960
0!
0P
0O
0N
0M
0"
1?
0J
0&
0'
0(
1)
#1965
0?
1&
#1970
1L
0P
1!
1I
1O
1H
1N
1G
1M
1#
1"
1?
1J
0&
1'
#1975
1P
0L
0I
0H
0G
0#
0?
1&
#1980
0!
0P
0O
0N
0B
0M
0A
0"
0@
1?
0J
0%
0&
0'
1(
#1985
0?
1&
#1990
1P
1L
1!
1I
1H
1G
1#
1?
1J
0&
1'
#1995
0!
0P
0L
0I
0H
0G
0#
0?
1&
#2000
1B
1A
1@
1?
0J
1%
0C
0&
0'
0(
0)
1*
#2005
0?
1&
#2010
1L
0P
1!
1I
1O
1H
1N
1G
1M
1#
1"
1?
1J
0&
1'
#2015
1P
0L
0I
0H
0G
0#
0?
1&
#2020
0!
0P
0O
0N
0M
0"
1?
0J
0&
0'
1(
#2025
0?
1&
#2030
1L
0P
1!
1I
1O
1H
1N
1G
1M
1#
1"
1?
1J
0&
1'
#2035
1P
0L
0I
0H
0G
0#
0?
1&
#2040
0!
0P
0O
0N
0M
0"
1?
0J
0&
0'
0(
1)
#2045
0?
1&
#2050
1L
0P
1!
1I
1O
1H
1N
1G
1M
1#
1"
1?
1J
0&
1'
#2055
1P
0L
0I
0H
0G
0#
0?
1&
#2060
0!
0P
0O
0N
0B
0M
0A
0"
0@
1?
0J
0%
0&
0'
1(
#2065
0?
1&
#2070
1P
1L
1!
1I
1H
1G
1#
1?
1J
0&
1'
#2075
0!
0P
0L
0I
0H
0G
0#
0?
1&
#2080
1B
1A
1@
1?
0J
1%
0&
0'
0(
0)
0*
1+
#2085
0?
1&
#2090
1L
0P
1!
1I
1O
1H
1N
1G
1M
1#
1"
1?
1J
0&
1'
#2095
1P
0L
0I
0H
0G
0#
0?
1&
#2100
0!
0P
0O
0N
0M
0"
1?
0J
0&
0'
1(
#2105
0?
1&
#2110
1L
0P
1!
1I
1O
1H
1N
1G
1M
1#
1"
1?
1J
0&
1'
#2115
1P
0L
0I
0H
0G
0#
0?
1&
#2120
0!
0P
0O
0N
0M
0"
1?
0J
0&
0'
0(
1)
#2125
0?
1&
#2130
1L
0P
1!
1I
1O
1H
1N
1G
1M
1#
1"
1?
1J
0&
1'
#2135
1P
0L
0I
0H
0G
0#
0?
1&
#2140
0!
0P
0O
0N
0B
0M
0A
0"
0@
1?
0J
0%
0&
0'
1(
#2145
0?
1&
#2150
1P
1L
1!
1I
1H
1G
1#
1?
1J
0&
1'
#2155
0!
0P
0L
0I
0H
0G
0#
0?
1&
#2160
1B
1A
1@
1?
0J
1%
1C
0&
0'
0(
0)
1*
#2165
0?
1&
#2170
1L
0P
1!
1I
1O
1H
1N
1G
1M
1#
1"
1?
1J
0&
1'
#2175
1P
0L
0I
0H
0G
0#
0?
1&
#2180
0!
0P
0O
0N
0M
0"
1?
0J
0&
0'
1(
#2185
0?
1&
#2190
1L
0P
1!
1I
1O
1H
1N
1G
1M
1#
1"
1?
1J
0&
1'
#2195
1P
0L
0I
0H
0G
0#
0?
1&
#2200
0!
0P
0O
0N
0M
0"
1?
0J
0&
0'
0(
1)
#2205
0?
1&
#2210
1L
0P
1!
1I
1O
1H
1N
1G
1M
1#
1"
1?
1J
0&
1'
#2215
1P
0L
0I
0H
0G
0#
0?
1&
#2220
0!
0P
0O
0N
0B
0M
0A
0"
0@
1?
0J
0%
0&
0'
1(
#2225
0?
1&
#2230
1P
1L
1!
1I
1H
1G
1#
1?
1J
0&
1'
#2235
0!
0P
0L
0I
0H
0G
0#
0?
1&
#2240
0K
1B
1F
1A
1E
1@
1D
1?
1J
1%
1$
0&
0'
0(
0)
0*
0+
1,
#2245
0?
1&
#2250
1!
1I
1H
1G
1#
1?
0&
1'
#2255
0!
0I
0H
0G
0#
0?
1&
#2260
1?
0&
0'
1(
#2265
0?
1&
#2270
1!
1I
1H
1G
1#
1?
0&
1'
#2275
0!
0I
0H
0G
0#
0?
1&
#2280
1?
0&
0'
0(
1)
#2285
0?
1&
#2290
1!
1I
1H
1G
1#
1?
0&
1'
#2295
0!
0I
0H
0G
0#
0?
1&
#2300
0B
0A
0@
1?
0%
0&
0'
1(
#2305
0?
1&
#2310
1!
1I
1H
1G
1#
1?
0&
1'
#2315
0!
0I
0H
0G
0#
0?
1&
#2320
1P
1!
1O
1N
1M
1"
1B
1A
1@
1K
1?
1%
0C
0&
0'
0(
0)
1*
#2325
0?
1&
#2330
0P
1L
1I
1H
1G
1#
1?
0&
1'
#2335
1P
0L
0I
0H
0G
0#
0?
1&
#2340
1?
0&
0'
1(
#2345
0?
1&
#2350
0P
1L
1I
1H
1G
1#
1?
0&
1'
#2355
1P
0L
0I
0H
0G
0#
0?
1&
#2360
1?
0&
0'
0(
1)
#2365
0?
1&
#2370
0P
1L
1I
1H
1G
1#
1?
0&
1'
#2375
1P
0L
0I
0H
0G
0#
0?
1&
#2380
0!
0P
0O
0N
0M
0"
0B
0A
0@
1?
0%
0&
0'
1(
#2385
0?
1&
#2390
1P
1L
1!
1I
1H
1G
1#
1?
0&
1'
#2395
0!
0P
0L
0I
0H
0G
0#
0?
1&
#2400
1P
1!
1O
1N
1M
1"
1B
1A
1@
1?
1%
0&
0'
0(
0)
0*
1+
#2405
0?
1&
#2410
0P
1L
1I
1H
1G
1#
1?
0&
1'
#2415
1P
0L
0I
0H
0G
0#
0?
1&
#2420
1?
0&
0'
1(
#2425
0?
1&
#2430
0P
1L
1I
1H
1G
1#
1?
0&
1'
#2435
1P
0L
0I
0H
0G
0#
0?
1&
#2440
1?
0&
0'
0(
1)
#2445
0?
1&
#2450
0P
1L
1I
1H
1G
1#
1?
0&
1'
#2455
1P
0L
0I
0H
0G
0#
0?
1&
